Create OME branded excel output • OMESurvey
…
# C + D) School ID and combine school and class information.
school = data$Barcode_ID |> as.character() |>  substr(3, 5)
school_and_class = paste0(school,'__', data$`Group_/_class`) 

# Combine into a cleaned dataset. 
data = data.frame(data[,1:4], school, school_and_class, data[,5:ncol(data)])

tibble::tibble(data)
#> # A tibble: 484 × 68
#>    Barcode_ID First_Name Surname Group_._class school school_and_class
#>    <chr>      <chr>      <chr>   <chr>         <chr>  <chr>           
#>  1 1200800551 Jake       Powell  15            008    008__15         
#>  2 1200800439 Jake       Powell  11            008    008__11         
#>  3 1200800442 Jake       Powell  11            008    008__11         
#>  4 1200800501 Jake       Powell  13            008    008__13         
#>  5 1200800539 Jake       Powell  14            008    008__14         
#>  6 1200800500 Jake       Powell  13            008    008__13         
#>  7 1200800511 Jake       Powell  13            008    008__13         
#>  8 1200800493 Jake       Powell  13            008    008__13         
#>  9 1200800498 Jake       Powell  13            008    008__13         
#> 10 1200800488 Jake       Powell  12            008    008__12         
#> # ℹ 474 more rows
#> # ℹ 62 more variables:
#> #   Tick_Appropriate_Box_Only_if_the_Child_did_not_take_the_Test <chr>,
#> #   Theme_1__Question_1 <chr>, Theme_1__Question_2 <chr>,
#> #   Theme_1__Question_3 <chr>, Theme_1__Question_4 <chr>,
#> #   Theme_1__Question_5 <chr>, Theme_1__Question_6 <chr>,
#> #   Theme_2__Question_7 <chr>, Theme_2__Question_8 <chr>, …
…
